{
  "version": 2,
  "projects": {
    "api": {
      "root": "apps/api",
      "projectType": "application",
      "sourceRoot": "apps/api/src",
      "targets": {
        "build": {
          "executor": "@nrwl/node:build",
          "outputs": ["{options.outputPath}"],
          "options": {
            "outputPath": "dist/apps/api",
            "main": "apps/api/src/handlers/main.ts",
            "tsConfig": "apps/api/tsconfig.app.json",
            "generatePackageJson": true
          },
          "configurations": {
            "production": {
              "optimization": true,
              "extractLicenses": true,
              "inspect": false,
              "generatePackageJson": true
            }
          }
        },
        "serve": {
          "executor": "@ns3/nx-serverless:serve",
          "options": {
            "out": "../../dist/out-tsc/apps/api"
          }
        },
        "deploy": {
          "executor": "@ns3/nx-serverless:deploy",
          "outputs": ["{options.outputPath}"],
          "options": {
            "outputPath": "apps/api/.serverless"
          }
        },
        "remove": {
          "executor": "@ns3/nx-serverless:remove"
        },
        "test": {
          "executor": "@nrwl/jest:jest",
          "outputs": ["coverage/apps/api"],
          "options": {
            "jestConfig": "apps/api/jest.config.js",
            "passWithNoTests": true
          }
        },
        "lint": {
          "executor": "@nrwl/linter:eslint",
          "outputs": ["{options.outputFile}"],
          "options": {
            "lintFilePatterns": ["apps/api/src/**/*.{ts,tsx,js,jsx}"]
          }
        }
      }
    },
    "db": {
      "root": "libs/db",
      "sourceRoot": "libs/db/src",
      "projectType": "library",
      "targets": {
        "lint": {
          "executor": "@nrwl/linter:eslint",
          "outputs": ["{options.outputFile}"],
          "options": {
            "lintFilePatterns": ["libs/db/**/*.ts"]
          }
        },
        "test": {
          "executor": "@nrwl/jest:jest",
          "outputs": ["coverage/libs/db"],
          "options": {
            "jestConfig": "libs/db/jest.config.js",
            "passWithNoTests": true
          }
        }
      }
    },
    "domain": {
      "root": "libs/domain",
      "sourceRoot": "libs/domain/src",
      "projectType": "library",
      "targets": {
        "lint": {
          "executor": "@nrwl/linter:eslint",
          "outputs": ["{options.outputFile}"],
          "options": {
            "lintFilePatterns": ["libs/domain/**/*.ts"]
          }
        },
        "test": {
          "executor": "@nrwl/jest:jest",
          "outputs": ["coverage/libs/domain"],
          "options": {
            "jestConfig": "libs/domain/jest.config.js",
            "passWithNoTests": true
          }
        }
      }
    },
    "sns": {
      "root": "libs/sns",
      "sourceRoot": "libs/sns/src",
      "projectType": "library",
      "targets": {
        "lint": {
          "executor": "@nrwl/linter:eslint",
          "outputs": ["{options.outputFile}"],
          "options": {
            "lintFilePatterns": ["libs/sns/**/*.ts"]
          }
        },
        "test": {
          "executor": "@nrwl/jest:jest",
          "outputs": ["coverage/libs/sns"],
          "options": {
            "jestConfig": "libs/sns/jest.config.js",
            "passWithNoTests": true
          }
        }
      }
    },
    "updater": {
      "root": "apps/updater",
      "projectType": "application",
      "sourceRoot": "apps/updater/src",
      "targets": {
        "build": {
          "executor": "@nrwl/node:build",
          "outputs": ["{options.outputPath}"],
          "options": {
            "outputPath": "dist/apps/updater",
            "main": "apps/updater/src/handlers/main.ts",
            "tsConfig": "apps/updater/tsconfig.app.json",
            "generatePackageJson": true
          },
          "configurations": {
            "production": {
              "optimization": true,
              "extractLicenses": true,
              "inspect": false,
              "generatePackageJson": true
            }
          }
        },
        "serve": {
          "executor": "@ns3/nx-serverless:serve",
          "options": {
            "out": "../../dist/out-tsc/apps/updater"
          }
        },
        "deploy": {
          "executor": "@ns3/nx-serverless:deploy",
          "outputs": ["{options.outputPath}"],
          "options": {
            "outputPath": "apps/updater/.serverless"
          }
        },
        "remove": {
          "executor": "@ns3/nx-serverless:remove"
        },
        "test": {
          "executor": "@nrwl/jest:jest",
          "outputs": ["coverage/apps/updater"],
          "options": {
            "jestConfig": "apps/updater/jest.config.js",
            "passWithNoTests": true
          }
        },
        "lint": {
          "executor": "@nrwl/linter:eslint",
          "outputs": ["{options.outputFile}"],
          "options": {
            "lintFilePatterns": ["apps/updater/src/**/*.{ts,tsx,js,jsx}"]
          }
        }
      }
    },
    "updater-webhook": {
      "root": "apps/updater-webhook",
      "sourceRoot": "apps/updater-webhook/src",
      "projectType": "application",
      "targets": {
        "build": {
          "executor": "@nrwl/node:build",
          "outputs": ["{options.outputPath}"],
          "options": {
            "outputPath": "dist/apps/updater-webhook",
            "main": "apps/updater-webhook/src/handlers/main.ts",
            "tsConfig": "apps/updater-webhook/tsconfig.app.json"
          },
          "configurations": {
            "production": {
              "optimization": true,
              "extractLicenses": true,
              "inspect": false
            }
          }
        },
        "serve": {
          "executor": "@nrwl/node:execute",
          "options": {
            "buildTarget": "updater-webhook:build"
          }
        },
        "lint": {
          "executor": "@nrwl/linter:eslint",
          "outputs": ["{options.outputFile}"],
          "options": {
            "lintFilePatterns": ["apps/updater-webhook/**/*.ts"]
          }
        },
        "test": {
          "executor": "@nrwl/jest:jest",
          "outputs": ["coverage/apps/updater-webhook"],
          "options": {
            "jestConfig": "apps/updater-webhook/jest.config.js",
            "passWithNoTests": true
          }
        }
      }
    }
  },
  "cli": {
    "defaultCollection": "@nrwl/nest"
  },
  "defaultProject": "updater-webhook"
}
